Homework5 by Pranav Nair in ST558
…
Rows: 918 Columns: 12

── Column specification ────────────────────────────────────────────────────────
Delimiter: ","
chr (5): Sex, ChestPainType, RestingECG, ExerciseAngina, ST_Slope
dbl (7): Age, RestingBP, Cholesterol, FastingBS, MaxHR, Oldpeak, HeartDisease

ℹ Use `spec()` to retrieve the full column specification for this data.
ℹ Specify the column types or set `show_col_types = FALSE` to quiet this message.

print(heart_data)

# A tibble: 918 × 12
     Age Sex   ChestPainType RestingBP Cholesterol FastingBS RestingECG MaxHR
   <dbl> <chr> <chr>             <dbl>       <dbl>     <dbl> <chr>      <dbl>
 1    40 M     ATA                 140         289         0 Normal       172
 2    49 F     NAP                 160         180         0 Normal       156
 3    37 M     ATA                 130         283         0 ST            98
 4    48 F     ASY                 138         214         0 Normal       108
 5    54 M     NAP                 150         195         0 Normal       122
 6    39 M     NAP                 120         339         0 Normal       170
 7    45 F     ATA                 130         237         0 Normal       170
 8    54 M     ATA                 110         208         0 Normal       142
 9    37 M     ASY                 140         207         0 Normal       130
10    48 F     ATA                 120         284         0 Normal       120
# ℹ 908 more rows
# ℹ 4 more variables: ExerciseAngina <chr>, Oldpeak <dbl>, ST_Slope <chr>,
#   HeartDisease <dbl>
…
table(heart_data$HeartDisease)

  0   1 
410 508 

#2
#Create a new variable that is a factor version of HeartDisease variable, and remove ST_Slope variable
heart_data$HeartDisease <- as.factor(heart_data$HeartDisease)

heart_data |>
  select(-ST_Slope)

# A tibble: 918 × 11
     Age Sex   ChestPainType RestingBP Cholesterol FastingBS RestingECG MaxHR
   <dbl> <chr> <chr>             <dbl>       <dbl>     <dbl> <chr>      <dbl>
 1    40 M     ATA                 140         289         0 Normal       172
 2    49 F     NAP                 160         180         0 Normal       156
 3    37 M     ATA                 130         283         0 ST            98
 4    48 F     ASY                 138         214         0 Normal       108
 5    54 M     NAP                 150         195         0 Normal       122
 6    39 M     NAP                 120         339         0 Normal       170
 7    45 F     ATA                 130         237         0 Normal       170
 8    54 M     ATA                 110         208         0 Normal       142
 9    37 M     ASY                 140         207         0 Normal       130
10    48 F     ATA                 120         284         0 Normal       120
# ℹ 908 more rows
# ℹ 3 more variables: ExerciseAngina <chr>, Oldpeak <dbl>, HeartDisease <fct>

  #filter(Cholesterol != 0 & RestingBP != 0)
  
print(heart_data)

# A tibble: 918 × 12
     Age Sex   ChestPainType RestingBP Cholesterol FastingBS RestingECG MaxHR
   <dbl> <chr> <chr>             <dbl>       <dbl>     <dbl> <chr>      <dbl>
 1    40 M     ATA                 140         289         0 Normal       172
 2    49 F     NAP                 160         180         0 Normal       156
 3    37 M     ATA                 130         283         0 ST            98
 4    48 F     ASY                 138         214         0 Normal       108
 5    54 M     NAP                 150         195         0 Normal       122
 6    39 M     NAP                 120         339         0 Normal       170
 7    45 F     ATA                 130         237         0 Normal       170
 8    54 M     ATA                 110         208         0 Normal       142
 9    37 M     ASY                 140         207         0 Normal       130
10    48 F     ATA                 120         284         0 Normal       120
# ℹ 908 more rows
# ℹ 4 more variables: ExerciseAngina <chr>, Oldpeak <dbl>, ST_Slope <chr>,
#   HeartDisease <fct>
…
#3
#kNN model, create dummy variables for the character variables in the dataset.

heart_data$Sex <- as.factor(heart_data$Sex)
heart_data$ChestPainType <- as.factor(heart_data$ChestPainType)
heart_data$RestingECG <- as.factor(heart_data$RestingECG)
heart_data$ExerciseAngina <- as.factor(heart_data$ExerciseAngina)

print(heart_data)

# A tibble: 918 × 12
     Age Sex   ChestPainType RestingBP Cholesterol FastingBS RestingECG MaxHR
   <dbl> <fct> <fct>             <dbl>       <dbl>     <dbl> <fct>      <dbl>
 1    40 M     ATA                 140         289         0 Normal       172
 2    49 F     NAP                 160         180         0 Normal       156
 3    37 M     ATA                 130         283         0 ST            98
 4    48 F     ASY                 138         214         0 Normal       108
 5    54 M     NAP                 150         195         0 Normal       122
 6    39 M     NAP                 120         339         0 Normal       170
 7    45 F     ATA                 130         237         0 Normal       170
 8    54 M     ATA                 110         208         0 Normal       142
 9    37 M     ASY                 140         207         0 Normal       130
10    48 F     ATA                 120         284         0 Normal       120
# ℹ 908 more rows
# ℹ 4 more variables: ExerciseAngina <fct>, Oldpeak <dbl>, ST_Slope <chr>,
#   HeartDisease <fct>
…
